{
  "$schema": "https://developer.microsoft.com/json-schemas/spfx-build/config.2.0.schema.json",
  "version": "2.0",
  "bundles": {
    "hospital-web-part": {
      "components": [
        {
          "entrypoint": "./lib/webparts/hospital/HospitalWebPart.js",
          "manifest": "./src/webparts/hospital/HospitalWebPart.manifest.json"
        }
      ]
    }
  },
  "externals": {},
  "localizedResources": {
    "HospitalWebPartStrings": "lib/webparts/hospital/loc/{locale}.js",
    "ControlStrings": "node_modules/@pnp/spfx-controls-react/lib/loc/{locale}.js",
    "PropertyControlStrings": "node_modules/@pnp/spfx-property-controls/lib/loc/{locale}.js"
  }
}